{
  "https://deno.land/std@0.61.0/_util/assert.ts": "e1f76e77c5ccb5a8e0dbbbe6cce3a56d2556c8cb5a9a8802fc9565af72462149",
  "https://deno.land/std@0.61.0/_util/has_own_property.ts": "91a2ef2fae5d941643a6472b97cac7ed8060a96deb66f4fafb4a2750c8af18e5",
  "https://deno.land/std@0.61.0/async/deferred.ts": "ac95025f46580cf5197928ba90995d87f26e202c19ad961bc4e3177310894cdc",
  "https://deno.land/std@0.61.0/async/delay.ts": "35957d585a6e3dd87706858fb1d6b551cb278271b03f52c5a2cb70e65e00c26a",
  "https://deno.land/std@0.61.0/async/mod.ts": "bf46766747775d0fc4070940d20d45fb311c814989485861cdc8a8ef0e3bbbab",
  "https://deno.land/std@0.61.0/async/mux_async_iterator.ts": "f6ca1b70f05e3cb676956d70a3230c99925288cf67e4e0b0bbaf34759b41945b",
  "https://deno.land/std@0.61.0/bytes/mod.ts": "b1a149ac741728db00bda9ce1a2d044f248edd5ac95e708a6cc501bfd3adb4a7",
  "https://deno.land/std@0.61.0/encoding/utf8.ts": "8654fa820aa69a37ec5eb11908e20b39d056c9bf1c23ab294303ff467f3d50a1",
  "https://deno.land/std@0.61.0/fmt/colors.ts": "06444b6ebc3842a4b2340d804bfa81fc5452a03513cbb81bd7f6bf8f4b8f3ac4",
  "https://deno.land/std@0.61.0/fs/exists.ts": "5429dce6587bfcdde06a7a2a1fd5ad932c17d74ca082e67934fa646cff1d2e57",
  "https://deno.land/std@0.61.0/hash/sha1.ts": "c1a97bde767b98b88495470f39c30c37e44ac3984409f120ef65fd84c9d27608",
  "https://deno.land/std@0.61.0/hash/sha256.ts": "1aedfb09bcb067929de6ad78f3b074b802ec94ec96c8a07b80475d90942cb221",
  "https://deno.land/std@0.61.0/http/_io.ts": "7a31bf7d0167685d8d0ff4eca93b558cd26539695d1ddbd715ee28bf1dc7db17",
  "https://deno.land/std@0.61.0/http/http_status.ts": "0ecc0799a208f49452023b1b927106ba5a2c13cc6cf6666345db028239d554ab",
  "https://deno.land/std@0.61.0/http/server.ts": "3bae933acb2645d863f0f87a91070d2478ad24b828ce27936711377426896b29",
  "https://deno.land/std@0.61.0/io/bufio.ts": "dd1fc575524fe8b44e128091ba0e6833be7d0966336ef12a407544440b762e17",
  "https://deno.land/std@0.61.0/io/ioutil.ts": "9f434a266181e6bd03ff1cd4d30163637655422f26d147c397d9305b904cb40d",
  "https://deno.land/std@0.61.0/log/handlers.ts": "fca7c52bc63311ede74309140a38f58a3d1aaae7ec3956bbbaee3cea9a6c161a",
  "https://deno.land/std@0.61.0/log/levels.ts": "d274b41f2dc909c6eef4e71c8a50ccbc81ea4e1df28cb268f02942966a205593",
  "https://deno.land/std@0.61.0/log/logger.ts": "5af4269891ec571e5b06ac8393c1509b6412919a8f96027d1a38e5da27c3b8f0",
  "https://deno.land/std@0.61.0/log/mod.ts": "e2c6991d91f0fccd6d5c366072cab69048f7de6d0b256bd87f999911a72c60be",
  "https://deno.land/std@0.61.0/path/_constants.ts": "e11f32a36644e04dce243f3c1f30c02cc5d149827f48a755628176f0707cfc70",
  "https://deno.land/std@0.61.0/path/_globrex.ts": "696996deed47bd98fcab9de0034233380ead443a5cd702631151c6a71e3d21a2",
  "https://deno.land/std@0.61.0/path/_interface.ts": "5876f91d35fd42624893a4aaddaee352144e1f46e719f1dde6511bab7c3c1029",
  "https://deno.land/std@0.61.0/path/_util.ts": "76f73f9b4a994e2859e9d4544cfc34f0ff21b48893c65023025e572c21a43542",
  "https://deno.land/std@0.61.0/path/common.ts": "e4ec66a7416d56f60331b66e27a8a4f08c7b1cf48e350271cb69754a01cf5c04",
  "https://deno.land/std@0.61.0/path/glob.ts": "ff5c4d04d643083dc5c8a46da83b8c836934155c2a7ad72675c43092b2a435ea",
  "https://deno.land/std@0.61.0/path/mod.ts": "6de8885c2534757097818e302becd1cefcbc4c28ac022cc279e612ee04e8cfd1",
  "https://deno.land/std@0.61.0/path/posix.ts": "2ed477953d037fd42d077822e6db0adaa8dcc4ce1cfbb673b0a49ce1c1c301ff",
  "https://deno.land/std@0.61.0/path/separator.ts": "9dd15d46ff84a16e13554f56af7fee1f85f8d0f379efbbe60ac066a60561f036",
  "https://deno.land/std@0.61.0/path/win32.ts": "e4f0b577346f0936d92b6473369248773db217ce385295024a6875e559376e43",
  "https://deno.land/std@0.61.0/testing/asserts.ts": "e12228748a139acfbf00c3ef6022fefd9fc265d7c2034368bad2cd80099c76df",
  "https://deno.land/std@0.61.0/testing/diff.ts": "77338e2b479626c096278d7b4a95f750753ee39558f314db6b794e8d8a98d515",
  "https://deno.land/std@0.61.0/textproto/mod.ts": "ee6bad9818d3fb44ecb2e0bbf9fc5b6a871fb332145800c54f732bf805dddff2",
  "https://deno.land/std@0.61.0/ws/mod.ts": "7063b3f6b9fcd4ef766c35b0588c85c4160999ef70a4cef92377d709848d8b52",
  "https://deno.land/x/media_types@v2.4.2/db.ts": "56a9deab286b6283e1df021d74ee3319353f27f7827716b6443427fff2fc6e24",
  "https://deno.land/x/media_types@v2.4.2/deps.ts": "e9b3da67c55907c7206abff65b36be9d483089c3c33385994a6507a35a8d769c",
  "https://deno.land/x/media_types@v2.4.2/mod.ts": "94141d7c415fcdad350fec9d36d77c18334efe25766db6f37d34709c896881ed",
  "https://deno.land/x/oak@v6.0.1/application.ts": "545b6e1d00803fecab14f32c4e3dfda919c97d5ef674a3cd1f9cf2f555494beb",
  "https://deno.land/x/oak@v6.0.1/body.ts": "18497f073a789f4d84625b8b697b3c1257743902fc8d2fe82e1a37f5bb0a63c4",
  "https://deno.land/x/oak@v6.0.1/buf_reader.ts": "ced6a04ac8f529a18e1e85182ffe0cf82ee9477e1a8f5441a02e923f62bebc54",
  "https://deno.land/x/oak@v6.0.1/content_disposition.ts": "1504bb85669e6c7e6dd30210fa7e73c55aa40195ed40a090f4ad58568c2b9882",
  "https://deno.land/x/oak@v6.0.1/context.ts": "506f2c42657becf9a45ffb02efc6d131eb55f2364950c0ce209d9272586c3711",
  "https://deno.land/x/oak@v6.0.1/cookies.ts": "af291cb64ae0ccc40e6d777980d89d694e971131222130b1b11e9200b9cae6f1",
  "https://deno.land/x/oak@v6.0.1/deps.ts": "32e5f78f1035a3cc95930f07b062c7bc78a2df0fc2bea3bf4caaf9fd615f4268",
  "https://deno.land/x/oak@v6.0.1/headers.ts": "3fcd4efee596dc8a22f37ba9b96e6d4e277b1f9c2b9994be5af14761d99afe90",
  "https://deno.land/x/oak@v6.0.1/helpers.ts": "ffc907c49368dcbe591f0bfee122a354b3a66def9621de48e06bbbdefe913b3d",
  "https://deno.land/x/oak@v6.0.1/httpError.ts": "7e09654eb5e0843beca87934b9fea7a8af79f9da0cd15c220197e7c619a96708",
  "https://deno.land/x/oak@v6.0.1/isMediaType.ts": "77b94675822d7de7f6af21bb765ed9f25b956c7ac4d292dd66c2ecb9ea9478e5",
  "https://deno.land/x/oak@v6.0.1/keyStack.ts": "a490066c90cbfea6b7de73303b9530e68ffbe86ff48b99ff17dab1cc9cf0751f",
  "https://deno.land/x/oak@v6.0.1/mediaTyper.ts": "042b853fc8e9c3f6c628dd389e03ef481552bf07242efc3f8a1af042102a6105",
  "https://deno.land/x/oak@v6.0.1/middleware.ts": "024640237d616319c964524412cfd3b2add6c88c6cb05468b09b459121cacc19",
  "https://deno.land/x/oak@v6.0.1/mod.ts": "948cbd62197a8b73449d553b599794af7ed5e94964105d20f89e91db87f2c966",
  "https://deno.land/x/oak@v6.0.1/multipart.ts": "b79a61ea535c308c81e3ef5b60e9aa3c0b9ebcd6cad55d8c8f2ac852247fb927",
  "https://deno.land/x/oak@v6.0.1/negotiation/charset.ts": "b4c2e0c49dd5122f130f95bf29508448d983c424801b5bc304b00288b5ae3195",
  "https://deno.land/x/oak@v6.0.1/negotiation/common.ts": "f54d599d37408005f8c565d0f6505de51fed31feaa3654a7758e2359c006b02c",
  "https://deno.land/x/oak@v6.0.1/negotiation/encoding.ts": "b6b351150dfaa37d43c1e4679f0afa7ee70c2fa775d8bc8b9e9baf15bcf65888",
  "https://deno.land/x/oak@v6.0.1/negotiation/language.ts": "62ef13ea3146538dd52a4666611bd423ebb9a6438e7312398e17a4d16dbafb51",
  "https://deno.land/x/oak@v6.0.1/negotiation/mediaType.ts": "7e25cc34600beea3bf0b0879ff1783c752260fcb517dffea2e122830c36e8451",
  "https://deno.land/x/oak@v6.0.1/request.ts": "4e4c8b9b7b0b9c01730299078fe61613a1d0ab800e56656cabb339a013dbc5e7",
  "https://deno.land/x/oak@v6.0.1/response.ts": "5cdbb5aa3a040e4dba2995c69f129148b3f05cbf41fdb1b305306034b75b19e6",
  "https://deno.land/x/oak@v6.0.1/router.ts": "a6953bf13592a65b154a9b64cc6b1fe73f273432f92786d013dc670b4631dec1",
  "https://deno.land/x/oak@v6.0.1/send.ts": "3f937db7cbf2643ca8792b30b37400a57457385efa4a3cea6f484dd0c33b2877",
  "https://deno.land/x/oak@v6.0.1/server_sent_event.ts": "9a70da986c367c4689a6d3c8e9015e883ff0a1d6b0d451e20b9caf0c6a01cae5",
  "https://deno.land/x/oak@v6.0.1/tssCompare.ts": "bb88898156aad3157c30eebf87bc7312a2099f099c135090a937734fd8a15978",
  "https://deno.land/x/oak@v6.0.1/types.d.ts": "635b03a2620763bcaded852888c319ed34b80a76a16e0b28e6670ffe93630338",
  "https://deno.land/x/oak@v6.0.1/util.ts": "4db758c7ebc4902d79df495cc0c9aec3199f437d8fb190650703508dd7356ab6",
  "https://raw.githubusercontent.com/pillarjs/path-to-regexp/v6.1.0/src/index.ts": "8747ddaf85a761df4059cbc48a78cf710106f6b4c9d6932feb4d35120ac0990a"
}